<?xml version="1.0" encoding="UTF-8" standalone="no"?>
<!-- Created with Inkscape (http://www.inkscape.org/) -->

<svg
   xmlns:dc="http://purl.org/dc/elements/1.1/"
   xmlns:cc="http://creativecommons.org/ns#"
   xmlns:rdf="http://www.w3.org/1999/02/22-rdf-syntax-ns#"
   xmlns:svg="http://www.w3.org/2000/svg"
   xmlns="http://www.w3.org/2000/svg"
   xmlns:sodipodi="http://sodipodi.sourceforge.net/DTD/sodipodi-0.dtd"
   xmlns:inkscape="http://www.inkscape.org/namespaces/inkscape"
   width="100"
   height="130"
   id="svg2"
   version="1.1"
   inkscape:version="0.48.5 r10040"
   sodipodi:docname="bike pin.svg"
   inkscape:export-filename="C:\Users\Jean-Francis\Desktop\PICNIC\pins\bike pin.png"
   inkscape:export-xdpi="100"
   inkscape:export-ydpi="100">
  <defs
     id="defs4" />
  <sodipodi:namedview
     id="base"
     pagecolor="#ffffff"
     bordercolor="#666666"
     borderopacity="1.0"
     inkscape:pageopacity="0.0"
     inkscape:pageshadow="2"
     inkscape:zoom="3.959798"
     inkscape:cx="75.909507"
     inkscape:cy="71.823621"
     inkscape:document-units="px"
     inkscape:current-layer="layer1"
     showgrid="true"
     inkscape:window-width="1366"
     inkscape:window-height="705"
     inkscape:window-x="-8"
     inkscape:window-y="-8"
     inkscape:window-maximized="1">
    <inkscape:grid
       type="xygrid"
       id="grid2985"
       empspacing="5"
       visible="true"
       enabled="true"
       snapvisiblegridlinesonly="true" />
  </sodipodi:namedview>
  <metadata
     id="metadata7">
    <rdf:RDF>
      <cc:Work
         rdf:about="">
        <dc:format>image/svg+xml</dc:format>
        <dc:type
           rdf:resource="http://purl.org/dc/dcmitype/StillImage" />
        <dc:title />
      </cc:Work>
    </rdf:RDF>
  </metadata>
  <g
     inkscape:label="Layer 1"
     inkscape:groupmode="layer"
     id="layer1"
     transform="translate(0,-922.36218)">
    <path
       sodipodi:type="arc"
       style="fill:#ffffff;fill-opacity:1;fill-rule:nonzero;stroke:none"
       id="path2984"
       sodipodi:cx="50"
       sodipodi:cy="50"
       sodipodi:rx="40"
       sodipodi:ry="40"
       d="M 90,50 C 90,72.09139 72.09139,90 50,90 27.90861,90 10,72.09139 10,50 10,27.90861 27.90861,10 50,10 72.09139,10 90,27.90861 90,50 z"
       transform="translate(0,922.36218)" />
    <path
       id="path2987-1"
       style="fill:#f2a104;fill-opacity:1;stroke:none"
       d="m 28.100895,991.87928 c -2.512939,-0.45743 -5.075113,-1.81471 -6.743608,-3.57256 -1.345283,-1.4174 -2.191226,-2.79662 -2.815585,-4.59022 -0.538415,-1.547 -0.618364,-2.09178 -0.609843,-4.15715 0.0075,-1.77369 0.018,-1.88622 0.271022,-2.847 0.860427,-3.26788 2.595983,-5.68872 5.378574,-7.50182 2.332035,-1.51978 5.44864,-2.21284 8.291461,-1.84397 0.350585,0.0447 0.648242,0.0731 0.661464,0.0569 0.01316,0 0.491664,-1.56853 1.063202,-3.45597 1.350337,-4.45981 2.244036,-7.19428 2.665461,-8.15547 0.662676,-1.51125 1.388759,-2.33513 2.387866,-2.70888 0.857366,-0.32093 1.360174,-0.36968 3.834714,-0.37781 l 2.40461,0 0.02437,1.06153 c 0.01625,0.70931 -0.0085,1.10094 -0.07495,1.18097 -0.07857,0.0934 -0.452331,0.11781 -1.79996,0.11781 -2.69081,0 -3.532889,0.18282 -4.036939,0.87913 -0.313503,0.43265 -0.522346,0.99247 -0.963854,2.58334 -0.30071,1.08347 -0.334742,1.28538 -0.228958,1.35891 0.145693,0.10156 21.555036,0 21.658796,-0.0853 0.09421,-0.0934 0.741382,-1.90735 0.769848,-2.15841 0.02397,-0.21125 0.0021,-0.21938 -2.122839,-0.69103 -1.180835,-0.26406 -2.34984,-0.54681 -2.597795,-0.6305 -0.658616,-0.22344 -0.878816,-0.6301 -0.574856,-1.06438 l 0.133697,-0.19093 5.400433,0 c 2.97024,0 5.418002,0.0406 5.439464,0.065 0.02153,0.0406 0.05277,0.56671 0.06947,1.18096 l 0.03047,1.11638 -1.391488,0.0406 c -0.76531,0.0406 -1.428387,0.0812 -1.473501,0.13 -0.04509,0.0487 -0.262235,0.58541 -0.482479,1.19601 l -0.400481,1.11068 1.688407,3.74888 c 0.928623,2.06212 1.72088,3.80169 1.760574,3.86587 0.05931,0.0975 0.252566,0.0731 1.0873,-0.13 0.879796,-0.21531 1.226892,-0.25187 2.603872,-0.28437 2.394954,-0.0569 3.796366,0.23969 5.810895,1.22525 2.985378,1.46006 5.140742,3.89594 6.238787,7.05047 0.538427,1.547 0.618365,2.09178 0.609842,4.15716 -0.0073,1.77328 -0.01788,1.88581 -0.271009,2.847 -1.028065,3.90447 -3.529688,6.86968 -7.096153,8.4114 -6.839947,2.95669 -14.667492,-0.67315 -16.821986,-7.80122 -0.16051,-0.53097 -0.32106,-0.9949 -0.35681,-1.03065 -0.03575,-0.0406 -1.386336,-0.0853 -3.001379,-0.10563 l -2.936432,-0.0447 -0.586065,-0.28843 c -0.843501,-0.4156 -1.465206,-1.04366 -4.346985,-4.39157 -3.797069,-4.41147 -5.581636,-6.39843 -10.059045,-11.19869 l -0.568796,-0.60978 -0.443458,1.36825 c -0.243892,0.75279 -0.42393,1.41904 -0.400087,1.48119 0.02389,0.0609 0.258627,0.20719 0.521714,0.325 0.2631,0.11781 0.815025,0.43103 1.226526,0.69916 2.767635,1.80375 4.505908,4.2315 5.364623,7.49287 0.253012,0.96119 0.263737,1.07372 0.27105,2.847 0.0085,2.06538 -0.07142,2.61016 -0.609855,4.15716 -1.098049,3.15453 -3.25341,5.59041 -6.238775,7.05047 -1.182291,0.57809 -2.181955,0.90756 -3.394917,1.11922 -0.909727,0.15844 -3.331358,0.15437 -4.219448,0 z m 4.57541,-2.8149 c 1.009385,-0.26406 2.232849,-0.83119 3.102569,-1.43244 0.741618,-0.51269 2.008686,-1.79034 2.5125,-2.53337 1.843338,-2.71904 2.17246,-6.27819 0.860492,-9.30597 -0.821973,-1.89679 -2.458833,-3.69079 -4.210306,-4.61501 -0.32333,-0.17062 -0.619885,-0.27625 -0.659014,-0.23562 -0.03916,0.0406 -0.443146,1.27156 -0.897822,2.73569 -1.193007,3.8419 -1.838467,5.77119 -2.118557,6.3314 -0.299211,0.59882 -0.610709,0.793 -1.171157,0.72963 -0.458744,-0.0528 -0.782041,-0.27219 -0.984901,-0.66909 -0.325825,-0.63904 -0.258465,-0.93479 1.432169,-6.29201 0.593806,-1.88134 1.079657,-3.48968 1.079657,-3.57418 0,-0.19094 -0.361291,-0.26 -1.380397,-0.26 -1.876815,-0.002 -3.868992,0.62359 -5.522189,1.73509 -0.783819,0.52691 -2.024337,1.80863 -2.584912,2.67028 -1.888602,2.90428 -2.11025,6.58207 -0.580617,9.63503 0.457117,0.91204 0.923323,1.55229 1.762094,2.42004 1.419194,1.46778 2.996616,2.34406 4.999681,2.77753 1.144297,0.24781 3.190206,0.195 4.36071,-0.11375 z m 38.62578,-0.0406 c 2.104437,-0.36156 3.774795,-1.22403 5.288015,-2.73081 1.788183,-1.78059 2.736472,-3.93616 2.842605,-6.46019 0.08938,-2.1259 -0.464811,-4.09866 -1.637009,-5.82806 -0.503815,-0.74303 -1.770893,-2.02069 -2.512498,-2.53338 -0.861587,-0.59556 -2.0852,-1.16268 -3.102581,-1.43812 -0.767353,-0.20719 -0.976487,-0.2275 -2.428432,-0.2275 -1.301849,8.1e-4 -1.697313,0.0406 -2.189908,0.16656 -0.475446,0.13 -0.595903,0.19906 -0.576078,0.31688 0.01381,0.0812 0.780382,1.82121 1.703536,3.86465 2.943034,6.51382 2.93339,6.48782 2.663351,7.13416 -0.263169,0.62969 -0.134184,0.61587 -5.830188,0.624 -2.77483,0 -5.064439,0.0406 -5.088034,0.0488 -0.06423,0.065 0.185859,0.85191 0.475028,1.49622 0.628993,1.40197 2.078124,3.13706 3.31377,3.96784 2.138106,1.43732 4.675397,2.01013 7.078423,1.59738 z m -14.064803,-9.68703 c 0.07881,-0.0813 0.141903,-0.41884 0.179237,-0.96606 0.233066,-3.4121 2.071185,-6.72832 4.905356,-8.85016 0.473306,-0.35344 0.893328,-0.67478 0.933364,-0.71216 0.06618,-0.0609 -0.734862,-1.924 -1.858282,-4.32128 -0.424454,-0.90553 -0.438693,-0.92381 -0.549904,-0.71175 -0.109525,0.21125 -5.065369,13.17063 -5.657556,14.79725 -0.339137,0.93113 -0.415988,0.86125 0.966197,0.87547 0.723848,0 0.989909,0 1.081572,-0.10968 z m 10.883207,0.0731 c 0,-0.0894 -3.53485,-7.89426 -3.612497,-7.9751 -0.128578,-0.13406 -0.497896,0.12188 -1.345468,0.92991 -1.661855,1.58478 -2.528663,3.146 -2.951008,5.31497 -0.190288,0.97743 -0.212591,1.65912 -0.05631,1.72209 0.149704,0.0609 7.965272,0.0691 7.965272,0 z m -12.752867,-8.76241 c 1.62946,-4.37897 2.962668,-8.0141 2.962668,-8.07747 0,-0.0975 -1.748318,-0.11375 -10.412823,-0.10563 -5.72705,0 -10.506251,0.0406 -10.620436,0.065 -0.190292,0.0528 0.422099,0.74466 7.337423,8.28385 7.406325,8.07503 7.547115,8.2225 7.657769,8.01125 0.06199,-0.11781 1.445926,-3.79803 3.075399,-8.17741 z M 49.999998,922.36218 C 22.385763,922.36218 0,944.74778 0,972.36222 0,999.97625 20,1022.3623 49.999998,1052.3622 80.000001,1022.3623 100,999.97625 100,972.36222 100,944.74778 77.614236,922.36218 49.999998,922.36218 z m 0,9.99985 C 72.091389,932.36203 90,950.27075 90,972.36222 90,994.45369 72.091389,1012.362 49.999998,1012.362 27.90861,1012.362 10,994.45369 10,972.36222 10,950.27075 27.90861,932.36203 49.999998,932.36203 z"
       inkscape:connector-curvature="0" />
  </g>
</svg>
