<?xml version="1.0" encoding="UTF-8" standalone="no"?>
<!-- Created with Inkscape (http://www.inkscape.org/) -->

<svg
   xmlns:dc="http://purl.org/dc/elements/1.1/"
   xmlns:cc="http://creativecommons.org/ns#"
   xmlns:rdf="http://www.w3.org/1999/02/22-rdf-syntax-ns#"
   xmlns:svg="http://www.w3.org/2000/svg"
   xmlns="http://www.w3.org/2000/svg"
   xmlns:sodipodi="http://sodipodi.sourceforge.net/DTD/sodipodi-0.dtd"
   xmlns:inkscape="http://www.inkscape.org/namespaces/inkscape"
   width="100"
   height="130"
   id="svg2"
   version="1.1"
   inkscape:version="0.48.5 r10040"
   sodipodi:docname="playground pin.svg"
   inkscape:export-filename="C:\Users\Jean-Francis\Desktop\PICNIC\pins\playground pin.png"
   inkscape:export-xdpi="100"
   inkscape:export-ydpi="100">
  <defs
     id="defs4" />
  <sodipodi:namedview
     id="base"
     pagecolor="#ffffff"
     bordercolor="#666666"
     borderopacity="1.0"
     inkscape:pageopacity="0.0"
     inkscape:pageshadow="2"
     inkscape:zoom="2.8"
     inkscape:cx="60.749129"
     inkscape:cy="50.640149"
     inkscape:document-units="px"
     inkscape:current-layer="g3753"
     showgrid="true"
     inkscape:window-width="1366"
     inkscape:window-height="705"
     inkscape:window-x="-8"
     inkscape:window-y="-8"
     inkscape:window-maximized="1">
    <inkscape:grid
       type="xygrid"
       id="grid2985"
       empspacing="5"
       visible="true"
       enabled="true"
       snapvisiblegridlinesonly="true" />
  </sodipodi:namedview>
  <metadata
     id="metadata7">
    <rdf:RDF>
      <cc:Work
         rdf:about="">
        <dc:format>image/svg+xml</dc:format>
        <dc:type
           rdf:resource="http://purl.org/dc/dcmitype/StillImage" />
        <dc:title />
      </cc:Work>
    </rdf:RDF>
  </metadata>
  <g
     inkscape:label="Layer 1"
     inkscape:groupmode="layer"
     id="layer1"
     transform="translate(0,-922.36218)">
    <g
       id="g3753"
       transform="translate(0,-30.000021)">
      <path
         transform="translate(0,952.36218)"
         d="M 90,50 C 90,72.09139 72.09139,90 50,90 27.90861,90 10,72.09139 10,50 10,27.90861 27.90861,10 50,10 72.09139,10 90,27.90861 90,50 z"
         sodipodi:ry="40"
         sodipodi:rx="40"
         sodipodi:cy="50"
         sodipodi:cx="50"
         id="path2984"
         style="fill:#ffffff;fill-opacity:1;fill-rule:nonzero;stroke:none"
         sodipodi:type="arc" />
      <path
         d="m 57.785467,980.56284 0,9.34257 c -6.228373,0 -18.685121,28.02769 -24.913495,28.02769 l -9.34256,0 0,6.2284 12.456747,0 c 6.228374,0 18.685122,-28.02772 24.913495,-28.02772 l 4.24308,0 5.09948,28.02772 6.228374,0 -6.228374,-34.25609 0,-9.34257 -12.456747,0 z m 3.114187,3.1142 6.228374,0 0,6.22837 -6.228374,0 0,-6.22837 z M 50,952.36218 c -27.614237,0 -50,22.38576 -50,50.00002 0,27.6142 20,50 50,80 30,-30 50,-52.3858 50,-80 0,-27.61426 -22.385763,-50.00002 -50,-50.00002 z m 0,10 c 22.09139,0 40,17.90861 40,40.00002 0,22.0914 -17.90861,40 -40,40 -22.09139,0 -40,-17.9086 -40,-40 0,-22.09141 17.90861,-40.00002 40,-40.00002 z"
         style="fill:#00743f;fill-opacity:1;fill-rule:nonzero;stroke:none"
         id="rect2986"
         inkscape:connector-curvature="0" />
    </g>
  </g>
</svg>
