<?xml version="1.0" encoding="UTF-8" standalone="no"?>
<!-- Created with Inkscape (http://www.inkscape.org/) -->

<svg
   xmlns:dc="http://purl.org/dc/elements/1.1/"
   xmlns:cc="http://creativecommons.org/ns#"
   xmlns:rdf="http://www.w3.org/1999/02/22-rdf-syntax-ns#"
   xmlns:svg="http://www.w3.org/2000/svg"
   xmlns="http://www.w3.org/2000/svg"
   xmlns:sodipodi="http://sodipodi.sourceforge.net/DTD/sodipodi-0.dtd"
   xmlns:inkscape="http://www.inkscape.org/namespaces/inkscape"
   width="100"
   height="130"
   id="svg2"
   version="1.1"
   inkscape:version="0.48.5 r10040"
   sodipodi:docname="PICNIC PIN.svg"
   inkscape:export-filename="C:\Users\Jean-Francis\Desktop\PICNIC\pins\PICNIC PIN.png"
   inkscape:export-xdpi="101.24999"
   inkscape:export-ydpi="101.24999">
  <defs
     id="defs4" />
  <sodipodi:namedview
     id="base"
     pagecolor="#ffffff"
     bordercolor="#666666"
     borderopacity="1.0"
     inkscape:pageopacity="0.0"
     inkscape:pageshadow="2"
     inkscape:zoom="3.9846154"
     inkscape:cx="50"
     inkscape:cy="65.000002"
     inkscape:document-units="px"
     inkscape:current-layer="g3754"
     showgrid="false"
     inkscape:window-width="1366"
     inkscape:window-height="705"
     inkscape:window-x="-8"
     inkscape:window-y="-8"
     inkscape:window-maximized="1">
    <inkscape:grid
       type="xygrid"
       id="grid2985"
       empspacing="5"
       visible="true"
       enabled="true"
       snapvisiblegridlinesonly="true" />
  </sodipodi:namedview>
  <metadata
     id="metadata7">
    <rdf:RDF>
      <cc:Work
         rdf:about="">
        <dc:format>image/svg+xml</dc:format>
        <dc:type
           rdf:resource="http://purl.org/dc/dcmitype/StillImage" />
        <dc:title />
      </cc:Work>
    </rdf:RDF>
  </metadata>
  <g
     inkscape:label="Layer 1"
     inkscape:groupmode="layer"
     id="layer1"
     transform="translate(0,-922.3622)">
    <g
       id="g3754"
       transform="translate(0,-29.999982)"
       inkscape:export-xdpi="300.9375"
       inkscape:export-ydpi="300.9375">
      <path
         transform="translate(0,952.36218)"
         d="M 95,50 C 95,74.852814 74.852814,95 50,95 25.147186,95 5,74.852814 5,50 5,25.147186 25.147186,5 50,5 74.852814,5 95,25.147186 95,50 z"
         sodipodi:ry="45"
         sodipodi:rx="45"
         sodipodi:cy="50"
         sodipodi:cx="50"
         id="path3761"
         style="fill:#ffffff;fill-opacity:1;fill-rule:nonzero;stroke:none"
         sodipodi:type="arc" />
      <path
         inkscape:connector-curvature="0"
         transform="translate(0,952.36218)"
         id="path2987"
         d="M 50,0 C 22.385763,0 0,22.385763 0,50 0,77.614237 20,100 50,130 80,100 100,77.614237 100,50 100,22.385763 77.614237,0 50,0 z m 0,10 C 72.09139,10 90,27.90861 90,50 90,72.09139 72.09139,90 50,90 27.90861,90 10,72.09139 10,50 10,27.90861 27.90861,10 50,10 z"
         style="fill:#00743f;fill-opacity:1;fill-rule:nonzero;stroke:none" />
      <path
         id="rect2984"
         d="m 32.296725,982.83915 c -1.961523,0 -3.540655,1.57913 -3.540655,3.54065 0,1.96152 1.579132,3.54069 3.540655,3.54069 l 6.528082,0 -6.129758,10.62191 -14.560943,0 c -1.961523,0 -3.540655,1.5793 -3.540655,3.5407 0,1.9616 1.579132,3.5407 3.540655,3.5407 l 10.467061,0 -5.156079,8.9401 c -0.980761,1.6988 -0.393111,3.8655 1.305617,4.8463 1.698728,0.9808 3.84338,0.3932 4.824142,-1.3056 l 7.214084,-12.4808 26.422137,0 7.214084,12.4808 c 0.980761,1.6988 3.125415,2.2864 4.824144,1.3056 1.698728,-0.9808 2.286377,-3.1475 1.305616,-4.8463 l -5.156078,-8.9401 10.46706,0 c 1.961523,0 3.540655,-1.5791 3.540655,-3.5407 0,-1.9614 -1.579132,-3.5407 -3.540655,-3.5407 l -14.560943,0 -6.129759,-10.62191 6.528082,0 c 1.961524,0 3.540656,-1.57917 3.540656,-3.54069 0,-1.96152 -1.579132,-3.54065 -3.540656,-3.54065 l -35.406548,0 z m 14.715848,7.08134 5.974854,0 6.12976,10.62191 -18.234373,0 6.129759,-10.62191 z"
         style="fill:#00743f;fill-opacity:1;fill-rule:nonzero;stroke:none"
         inkscape:connector-curvature="0" />
    </g>
  </g>
</svg>
